{"data":[{"id":"67e6b23a-66df-46af-8b73-e62cca92509d","konepsId":"R26BK01458477","title":"(재공고)2026년 청년농부 창농기반구축 지원사업 트랙터 구입(김○찬)","orgName":"경상북도 청송군","budget":140000000,"deadline":"2026-04-20T03:00:00","category":"물품","subCategories":[],"region":"경북","createdAt":"2026-04-11T04:05:15.336","rawJson":{"VAT":"0","chgDt":"","refNo":"청송군 공고 제2026-479호","rgstDt":"2026-04-11 11:06:18","crdtrNm":"청송군수","exctvNm":"이동욱","mnfctYn":"N","opengDt":"2026-04-20 14:00:00","prdctQty":"1","reNtceYn":"Y","rgstTyNm":"조달청 또는 나라장터 자체 공고건","bidClseDt":"2026-04-20 12:00:00","bidNtceDt":"2026-04-11 11:06:18","bidNtceNm":"(재공고)2026년 청년농부 창농기반구축 지원사업 트랙터 구입(김○찬)","bidNtceNo":"R26BK01458477","dminsttCd":"5160000","dminsttNm":"경상북도 청송군","indutyVAT":"","infoBizYn":"","intrbidYn":"N","opengPlce":"국가종합전자조달시스템(나라장터)","prdctUnit":"대","prdctUprc":"140000000","bidBeginDt":"2026-04-13 12:00:00","bidMethdNm":"전자입찰","bidNtceOrd":"000","bidNtceUrl":"https://www.g2b.go.kr/link/PNPE027_01/single/?bidPbancNo=R26BK01458477&bidPbancOrd=000","chgNtceRsn":"","dlvrDaynum":"30","ntceKindNm":"재공고","untyNtceNo":"R26BM00731015","dlvrTmlmtDt":"","dsgntCmptYn":"N","ntceInsttCd":"5160000","ntceInsttNm":"경상북도 청송군","prdctSpecNm":"수요기관 지정규격","presmptPrce":"140000000","rbidOpengDt":"2026-04-20 14:00:00","asignBdgtAmt":"140000000","bfSpecRgstNo":"R26BD00203222","bidPrceEvlRt":"","bidPrtcptFee":"0","dlvryCndtnNm":"납품장소 하차도","rbidPermsnYn":"Y","totPrdprcNum":"15","bidNtceDtlUrl":"https://www.g2b.go.kr/link/PNPE027_01/single/?bidPbancNo=R26BK01458477&bidPbancOrd=000","drwtPrdprcNum":"4","stdNtceDocUrl":"https://www.g2b.go.kr/pn/pnp/pnpe/UntyAtchFile/downloadFile.do?bidPbancNo=R26BK01458477&bidPbancOrd=000&fileType=&fileSeq=1&prcmBsneSeCd=01","techAbltEvlRt":"","bidQlfctRgstDt":"2026-04-19 18:00","indstrytyLmtYn":"","sucsfbidMthdCd":"낙030001","sucsfbidMthdNm":"적격심사제-추정가격이 고시금액 미만인 물품의 평가기준(물품구매)","ntceInsttOfclNm":"이동욱","ntceSpecDocUrl1":"https://www.g2b.go.kr/pn/pnp/pnpe/UntyAtchFile/downloadFile.do?bidPbancNo=R26BK01458477&bidPbancOrd=000&fileType=&fileSeq=1&prcmBsneSeCd=01","ntceSpecDocUrl2":"https://www.g2b.go.kr/pn/pnp/pnpe/UntyAtchFile/downloadFile.do?bidPbancNo=R26BK01458477&bidPbancOrd=000&fileType=&fileSeq=2&prcmBsneSeCd=01","ntceSpecDocUrl3":"https://www.g2b.go.kr/pn/pnp/pnpe/UntyAtchFile/downloadFile.do?bidPbancNo=R26BK01458477&bidPbancOrd=000&fileType=&fileSeq=3&prcmBsneSeCd=01","ntceSpecDocUrl4":"","ntceSpecDocUrl5":"","ntceSpecDocUrl6":"","ntceSpecDocUrl7":"","ntceSpecDocUrl8":"","ntceSpecDocUrl9":"","ntceSpecFileNm1":"(재공고)2026년 청년농부 창농기반구축 지원사업 트랙터 구입 견적제출 안내공고(김○찬) [입찰대행].hwp","ntceSpecFileNm2":"(재공고)2026년 청년농부 창농기반구축 지원사업 트랙터 구입 견적제출 안내공고(김○찬) [입찰대행].pdf","ntceSpecFileNm3":"시방서 및 규격서(김○찬).hwp","ntceSpecFileNm4":"","ntceSpecFileNm5":"","ntceSpecFileNm6":"","ntceSpecFileNm7":"","ntceSpecFileNm8":"","ntceSpecFileNm9":"","orderPlanUntyNo":"R26DD20707542","prdctClsfcLmtYn":"Y","dtilPrdctClsfcNo":"2510190101","ntceSpecDocUrl10":"","ntceSpecFileNm10":"","sucsfbidLwltRate":"84.245","cmmnSpldmdMethdCd":"","cmmnSpldmdMethdNm":"(없음)공동수급불허","cntrctCnclsMthdNm":"제한경쟁","arsltApplDocRcptDt":"","dtilPrdctClsfcNoNm":"농업용트랙터","ntceInsttOfclTelNo":"054-870-6136","purchsObjPrdctList":"[1^2510190101^농업용트랙터]","sucsfbidMthdAppStd":"지방자치단체 입찰시 낙찰자 결정기준","bidGrntymnyPaymntYn":"","brffcBidprcPermsnYn":"","bidPrtcptFeePaymntYn":"","bidWgrnteeRcptClseDt":"","dminsttOfclEmailAdrs":"","prearngPrceDcsnMthdNm":"복수예가","arsltApplDocRcptMthdNm":"","cmmnSpldmdAgrmntClseDt":"","cmmnSpldmdCorpRgnLmtYn":"N","ntceInsttOfclEmailAdrs":"lhr6605@korea.kr","rsrvtnPrceReMkngMthdNm":"재입찰시 예비가격을 다시 생성하여 예정가격이 산정됩니다.","rgnLmtBidLocplcJdgmBssCd":"","rgnLmtBidLocplcJdgmBssNm":"","cmmnSpldmdAgrmntRcptdocMethd":"없음"}},{"id":"5b322d20-c8aa-4db4-84c6-d250182c51cc","konepsId":"R26BK01457857","title":"내몸온핏 스마트 헬스케어 장비 구입","orgName":"인천광역시 중구 보건소","budget":212776000,"deadline":"2026-04-21T01:00:00","category":"물품","subCategories":[],"region":"인천","createdAt":"2026-04-11T04:05:15.336","rawJson":{"VAT":"19343273","chgDt":"","refNo":"인천광역시 중구 보건소 공고 제2026-20호","rgstDt":"2026-04-11 08:12:28","crdtrNm":"인천광역시중구보건소장","exctvNm":"정미현","mnfctYn":"N","opengDt":"2026-04-27 14:00:00","prdctQty":"1","reNtceYn":"N","rgstTyNm":"조달청 또는 나라장터 자체 공고건","bidClseDt":"2026-04-21 10:00:00","bidNtceDt":"2026-04-11 08:12:28","bidNtceNm":"내몸온핏 스마트 헬스케어 장비 구입","bidNtceNo":"R26BK01457857","dminsttCd":"3490019","dminsttNm":"인천광역시 중구 보건소","indutyVAT":"","infoBizYn":"","intrbidYn":"N","opengPlce":"국가종합전자조달시스템(나라장터)/제안서 평가위원회 개최 및 평가 완료 후 개찰","prdctUnit":"식","prdctUprc":"212776000","bidBeginDt":"2026-04-11 10:00:00","bidMethdNm":"전자입찰","bidNtceOrd":"000","bidNtceUrl":"https://www.g2b.go.kr/link/PNPE027_01/single/?bidPbancNo=R26BK01457857&bidPbancOrd=000","chgNtceRsn":"","dlvrDaynum":"120","ntceKindNm":"등록공고","untyNtceNo":"R26BM00731008","dlvrTmlmtDt":"","dsgntCmptYn":"N","ntceInsttCd":"3490019","ntceInsttNm":"인천광역시 중구 보건소","prdctSpecNm":"규격서 등 참조","presmptPrce":"193432727","rbidOpengDt":"2026-04-27 14:00:00","asignBdgtAmt":"212776000","bfSpecRgstNo":"R26BD00208124","bidPrceEvlRt":"","bidPrtcptFee":"0","dlvryCndtnNm":"과업내역에 따름","rbidPermsnYn":"Y","totPrdprcNum":"15","bidNtceDtlUrl":"https://www.g2b.go.kr/link/PNPE027_01/single/?bidPbancNo=R26BK01457857&bidPbancOrd=000","drwtPrdprcNum":"4","stdNtceDocUrl":"https://www.g2b.go.kr/pn/pnp/pnpe/UntyAtchFile/downloadFile.do?bidPbancNo=R26BK01457857&bidPbancOrd=000&fileType=&fileSeq=1&prcmBsneSeCd=01","techAbltEvlRt":"","bidQlfctRgstDt":"2026-04-20 18:00","indstrytyLmtYn":"","sucsfbidMthdCd":"낙030002","sucsfbidMthdNm":"규격가격동시입찰-제안적격자 중 예가 내 최저가 투찰자","ntceInsttOfclNm":"정미현","ntceSpecDocUrl1":"https://www.g2b.go.kr/pn/pnp/pnpe/UntyAtchFile/downloadFile.do?bidPbancNo=R26BK01457857&bidPbancOrd=000&fileType=&fileSeq=1&prcmBsneSeCd=01","ntceSpecDocUrl2":"https://www.g2b.go.kr/pn/pnp/pnpe/UntyAtchFile/downloadFile.do?bidPbancNo=R26BK01457857&bidPbancOrd=000&fileType=&fileSeq=2&prcmBsneSeCd=01","ntceSpecDocUrl3":"https://www.g2b.go.kr/pn/pnp/pnpe/UntyAtchFile/downloadFile.do?bidPbancNo=R26BK01457857&bidPbancOrd=000&fileType=&fileSeq=3&prcmBsneSeCd=01","ntceSpecDocUrl4":"https://www.g2b.go.kr/pn/pnp/pnpe/UntyAtchFile/downloadFile.do?bidPbancNo=R26BK01457857&bidPbancOrd=000&fileType=&fileSeq=4&prcmBsneSeCd=01","ntceSpecDocUrl5":"https://www.g2b.go.kr/pn/pnp/pnpe/UntyAtchFile/downloadFile.do?bidPbancNo=R26BK01457857&bidPbancOrd=000&fileType=&fileSeq=5&prcmBsneSeCd=01","ntceSpecDocUrl6":"","ntceSpecDocUrl7":"","ntceSpecDocUrl8":"","ntceSpecDocUrl9":"","ntceSpecFileNm1":"[공고문] 내몸온핏 스마트 헬스케어 장비 구입.hwp","ntceSpecFileNm2":"[공고문] 내몸온핏 스마트 헬스케어 장비 구입.pdf","ntceSpecFileNm3":"[과업지시서] 내몸온핏 스마트 헬스케어 장비 구입.hwp","ntceSpecFileNm4":"[규격서] 내몸온핏 스마트 헬스케어 장비 구입.hwp","ntceSpecFileNm5":"[제안요청서] 내몸온핏 스마트 헬스케어 장비 구입.hwp","ntceSpecFileNm6":"","ntceSpecFileNm7":"","ntceSpecFileNm8":"","ntceSpecFileNm9":"","orderPlanUntyNo":"R26DD20715640","prdctClsfcLmtYn":"N","dtilPrdctClsfcNo":"4225160301","ntceSpecDocUrl10":"","ntceSpecFileNm10":"","sucsfbidLwltRate":"","cmmnSpldmdMethdCd":"","cmmnSpldmdMethdNm":"(없음)공동수급불허","cntrctCnclsMthdNm":"제한경쟁","arsltApplDocRcptDt":"","dtilPrdctClsfcNoNm":"정형용운동장치","ntceInsttOfclTelNo":"032-760-6012","purchsObjPrdctList":"[1^4225160301^정형용운동장치]","sucsfbidMthdAppStd":"","bidGrntymnyPaymntYn":"","brffcBidprcPermsnYn":"","bidPrtcptFeePaymntYn":"","bidWgrnteeRcptClseDt":"","dminsttOfclEmailAdrs":"","prearngPrceDcsnMthdNm":"복수예가","arsltApplDocRcptMthdNm":"","cmmnSpldmdAgrmntClseDt":"","cmmnSpldmdCorpRgnLmtYn":"N","ntceInsttOfclEmailAdrs":"mh0324@korea.kr","rsrvtnPrceReMkngMthdNm":"재입찰시 예비가격을 다시 생성하여 예정가격이 산정됩니다.","rgnLmtBidLocplcJdgmBssCd":"","rgnLmtBidLocplcJdgmBssNm":"","cmmnSpldmdAgrmntRcptdocMethd":"없음"}},{"id":"f0d619df-2202-4b0a-87b9-1d6845b74629","konepsId":"R26BK01457365","title":"울주병원 소독공급실 의료장비(고압증기멸균기) 구입","orgName":"울산광역시 울주군 보건소","budget":67683000,"deadline":"2026-04-16T01:00:00","category":"물품","subCategories":[],"region":"울산","createdAt":"2026-04-11T04:05:15.336","rawJson":{"VAT":"6153000","chgDt":"","refNo":"울산광역시 울주군보건소 공고 제2026-11호","rgstDt":"2026-04-11 08:07:50","crdtrNm":"울산광역시 울주군 보건소","exctvNm":"장미진","mnfctYn":"N","opengDt":"2026-04-16 11:00:00","prdctQty":"1","reNtceYn":"N","rgstTyNm":"조달청 또는 나라장터 자체 공고건","bidClseDt":"2026-04-16 10:00:00","bidNtceDt":"2026-04-11 08:07:50","bidNtceNm":"울주병원 소독공급실 의료장비(고압증기멸균기) 구입","bidNtceNo":"R26BK01457365","dminsttCd":"3730017","dminsttNm":"울산광역시 울주군 보건소","indutyVAT":"","infoBizYn":"","intrbidYn":"N","opengPlce":"국가종합전자조달시스템(나라장터)","prdctUnit":"대","prdctUprc":"67683000","bidBeginDt":"2026-04-13 10:00:00","bidMethdNm":"전자입찰","bidNtceOrd":"000","bidNtceUrl":"https://www.g2b.go.kr/link/PNPE027_01/single/?bidPbancNo=R26BK01457365&bidPbancOrd=000","chgNtceRsn":"","dlvrDaynum":"","ntceKindNm":"등록공고","untyNtceNo":"R26BM00731007","dlvrTmlmtDt":"","dsgntCmptYn":"N","ntceInsttCd":"3730017","ntceInsttNm":"울산광역시 울주군 보건소","prdctSpecNm":"수요기관 규격(규격서 및 과업지시서 참조)","presmptPrce":"61530000","rbidOpengDt":"2026-04-16 11:00:00","asignBdgtAmt":"67683000","bfSpecRgstNo":"","bidPrceEvlRt":"","bidPrtcptFee":"0","dlvryCndtnNm":"과업내역에 따름","rbidPermsnYn":"Y","totPrdprcNum":"15","bidNtceDtlUrl":"https://www.g2b.go.kr/link/PNPE027_01/single/?bidPbancNo=R26BK01457365&bidPbancOrd=000","drwtPrdprcNum":"4","stdNtceDocUrl":"https://www.g2b.go.kr/pn/pnp/pnpe/UntyAtchFile/downloadFile.do?bidPbancNo=R26BK01457365&bidPbancOrd=000&fileType=&fileSeq=4&prcmBsneSeCd=01","techAbltEvlRt":"","bidQlfctRgstDt":"2026-04-15 18:00","indstrytyLmtYn":"","sucsfbidMthdCd":"낙030029","sucsfbidMthdNm":"소액수의견적-소액수의견적(2인 이상 견적 제출)","ntceInsttOfclNm":"장미진","ntceSpecDocUrl1":"https://www.g2b.go.kr/pn/pnp/pnpe/UntyAtchFile/downloadFile.do?bidPbancNo=R26BK01457365&bidPbancOrd=000&fileType=&fileSeq=1&prcmBsneSeCd=01","ntceSpecDocUrl2":"https://www.g2b.go.kr/pn/pnp/pnpe/UntyAtchFile/downloadFile.do?bidPbancNo=R26BK01457365&bidPbancOrd=000&fileType=&fileSeq=2&prcmBsneSeCd=01","ntceSpecDocUrl3":"https://www.g2b.go.kr/pn/pnp/pnpe/UntyAtchFile/downloadFile.do?bidPbancNo=R26BK01457365&bidPbancOrd=000&fileType=&fileSeq=3&prcmBsneSeCd=01","ntceSpecDocUrl4":"https://www.g2b.go.kr/pn/pnp/pnpe/UntyAtchFile/downloadFile.do?bidPbancNo=R26BK01457365&bidPbancOrd=000&fileType=&fileSeq=4&prcmBsneSeCd=01","ntceSpecDocUrl5":"https://www.g2b.go.kr/pn/pnp/pnpe/UntyAtchFile/downloadFile.do?bidPbancNo=R26BK01457365&bidPbancOrd=000&fileType=&fileSeq=5&prcmBsneSeCd=01","ntceSpecDocUrl6":"","ntceSpecDocUrl7":"","ntceSpecDocUrl8":"","ntceSpecDocUrl9":"","ntceSpecFileNm1":"고압증기멸균기 규격서 및 과업지시서.hwp","ntceSpecFileNm2":"물품구매 산출기초 조사서(울주병원 소독공급실 의료장비(고압증기 멸균기)).xlsx","ntceSpecFileNm3":"의료장비 구매계약 특수조건(소독공급실 의료장비 구입)-고압증기 멸균기.hwp","ntceSpecFileNm4":"입찰공고문(울주병원 고압증기멸균기 구입).hwp","ntceSpecFileNm5":"입찰공고문(울주병원 고압증기멸균기 구입).pdf","ntceSpecFileNm6":"","ntceSpecFileNm7":"","ntceSpecFileNm8":"","ntceSpecFileNm9":"","orderPlanUntyNo":"R26DD20724246","prdctClsfcLmtYn":"Y","dtilPrdctClsfcNo":"4228150802","ntceSpecDocUrl10":"","ntceSpecFileNm10":"","sucsfbidLwltRate":"88","cmmnSpldmdMethdCd":"","cmmnSpldmdMethdNm":"(없음)공동수급불허","cntrctCnclsMthdNm":"수의계약","arsltApplDocRcptDt":"","dtilPrdctClsfcNoNm":"고압증기멸균기","ntceInsttOfclTelNo":"","purchsObjPrdctList":"[1^4228150802^고압증기멸균기]","sucsfbidMthdAppStd":"","bidGrntymnyPaymntYn":"","brffcBidprcPermsnYn":"","bidPrtcptFeePaymntYn":"","bidWgrnteeRcptClseDt":"","dminsttOfclEmailAdrs":"","prearngPrceDcsnMthdNm":"복수예가","arsltApplDocRcptMthdNm":"","cmmnSpldmdAgrmntClseDt":"","cmmnSpldmdCorpRgnLmtYn":"N","ntceInsttOfclEmailAdrs":"jmj2166@korea.kr","rsrvtnPrceReMkngMthdNm":"재입찰시 예비가격을 다시 생성하여 예정가격이 산정됩니다.","rgnLmtBidLocplcJdgmBssCd":"N","rgnLmtBidLocplcJdgmBssNm":"본사또는참여지사소재지","cmmnSpldmdAgrmntRcptdocMethd":"없음"}}],"total":4,"hasMore":true,"page":1,"limit":3}